{
"type": "FeatureCollection",
"crs": { "type": "name", "properties": { "name": "urn:ogc:def:crs:OGC:1.3:CRS84" } },
"features": [
{ "type": "Feature", "properties": { "id": 11, "regiao_adm": "SER 11" }, "geometry": { "type": "MultiPolygon", "coordinates": [ [ [ [ -38.62119309, -3.77705892 ], [ -38.62118641, -3.77703534 ], [ -38.62145317, -3.77702868 ], [ -38.62101277, -3.77616815 ], [ -38.62057314, -3.77533425 ], [ -38.62047093, -3.77514827 ], [ -38.62034644, -3.77490847 ], [ -38.62025116, -3.7747439 ], [ -38.62022494, -3.77469143 ], [ -38.61985989, -3.77397366 ], [ -38.6195449, -3.77336612 ], [ -38.61945865, -3.77320351 ], [ -38.61935986, -3.77300803 ], [ -38.6192266, -3.77275765 ], [ -38.61914477, -3.77260366 ], [ -38.61906705, -3.77244262 ], [ -38.61901041, -3.77234149 ], [ -38.61891112, -3.77215045 ], [ -38.61884989, -3.77203454 ], [ -38.61878425, -3.7719103 ], [ -38.61871276, -3.77177497 ], [ -38.61851338, -3.7714021 ], [ -38.61832088, -3.77101303 ], [ -38.61816652, -3.77066715 ], [ -38.61792225, -3.77029993 ], [ -38.61763304, -3.76993402 ], [ -38.61738536, -3.76958958 ], [ -38.61711536, -3.76925058 ], [ -38.61683775, -3.76887578 ], [ -38.61679291, -3.76882885 ], [ -38.61682135, -3.76878296 ], [ -38.61694671, -3.7686642 ], [ -38.61675174, -3.76836405 ], [ -38.61661948, -3.7681125 ], [ -38.61639894, -3.76762044 ], [ -38.6161363, -3.76701626 ], [ -38.61578178, -3.76621955 ], [ -38.61561872, -3.76582475 ], [ -38.61535601, -3.76524261 ], [ -38.61505592, -3.76456529 ], [ -38.6148542, -3.76409676 ], [ -38.6145605, -3.76341475 ], [ -38.61415951, -3.76247481 ], [ -38.61401922, -3.7621401 ], [ -38.61376306, -3.76157396 ], [ -38.61347324, -3.76091865 ], [ -38.61314135, -3.76015319 ], [ -38.61257025, -3.75883706 ], [ -38.61193643, -3.75743803 ], [ -38.61184702, -3.75727345 ], [ -38.61156078, -3.75674655 ], [ -38.61121677, -3.75617367 ], [ -38.61121097, -3.75616483 ], [ -38.61099753, -3.75586039 ], [ -38.61089111, -3.75570861 ], [ -38.61085275, -3.75566357 ], [ -38.60983124, -3.75446388 ], [ -38.60934181, -3.75399615 ], [ -38.60924992, -3.75391959 ], [ -38.60866786, -3.75343463 ], [ -38.60864819, -3.75341958 ], [ -38.60826269, -3.75313149 ], [ -38.60790615, -3.75286504 ], [ -38.6070103, -3.75225864 ], [ -38.60632869, -3.75180897 ], [ -38.60557261, -3.75128936 ], [ -38.6047508, -3.75074289 ], [ -38.6041455, -3.75033379 ], [ -38.60346274, -3.74987102 ], [ -38.60269617, -3.7493704 ], [ -38.60212371, -3.74897492 ], [ -38.60210624, -3.74896285 ], [ -38.60153948, -3.74864725 ], [ -38.60133244, -3.74846557 ], [ -38.60115975, -3.74825684 ], [ -38.60099419, -3.7480358 ], [ -38.60079584, -3.74768255 ], [ -38.60064174, -3.74733469 ], [ -38.60045947, -3.74682052 ], [ -38.60017893, -3.74599137 ], [ -38.59989768, -3.74517296 ], [ -38.59988838, -3.74514591 ], [ -38.59986792, -3.7450835 ], [ -38.599577, -3.74419588 ], [ -38.59942693, -3.74374993 ], [ -38.59938955, -3.74364008 ], [ -38.59919628, -3.74307204 ], [ -38.59893107, -3.74222914 ], [ -38.59875878, -3.74248253 ], [ -38.59851261, -3.74273788 ], [ -38.59825619, -3.74297964 ], [ -38.59807938, -3.74320291 ], [ -38.59804343, -3.74326336 ], [ -38.59802398, -3.74332578 ], [ -38.59801328, -3.74337551 ], [ -38.59800937, -3.74344378 ], [ -38.59802865, -3.74374517 ], [ -38.59803443, -3.743831 ], [ -38.59802761, -3.74389342 ], [ -38.59801204, -3.74395681 ], [ -38.59796345, -3.74405627 ], [ -38.59791293, -3.74414793 ], [ -38.59786532, -3.74422496 ], [ -38.59768948, -3.74445018 ], [ -38.59757971, -3.74458375 ], [ -38.59753404, -3.744652 ], [ -38.59749905, -3.74474952 ], [ -38.59749125, -3.74480511 ], [ -38.59749557, -3.74491557 ], [ -38.5975459, -3.74527305 ], [ -38.59758464, -3.74546326 ], [ -38.59763117, -3.7456286 ], [ -38.59771214, -3.74586027 ], [ -38.59777759, -3.74603733 ], [ -38.59780184, -3.74608903 ], [ -38.59782998, -3.74613098 ], [ -38.59785861, -3.74616123 ], [ -38.59788966, -3.74618807 ], [ -38.59791538, -3.74620515 ], [ -38.59829104, -3.74639892 ], [ -38.5983284, -3.74642528 ], [ -38.59837208, -3.74646528 ], [ -38.59847398, -3.74656043 ], [ -38.59851183, -3.74659946 ], [ -38.59853803, -3.74663019 ], [ -38.59856034, -3.74666336 ], [ -38.59858022, -3.74670921 ], [ -38.59859865, -3.74676725 ], [ -38.59861027, -3.74682919 ], [ -38.59861461, -3.74688284 ], [ -38.59861603, -3.74695745 ], [ -38.5986131, -3.74700914 ], [ -38.59860519, -3.74708466 ], [ -38.59852685, -3.74717087 ], [ -38.59848018, -3.74722783 ], [ -38.59846718, -3.74724486 ], [ -38.598451, -3.74727228 ], [ -38.59843349, -3.74730955 ], [ -38.59841359, -3.74735294 ], [ -38.59839714, -3.74738595 ], [ -38.59838547, -3.74740884 ], [ -38.59837168, -3.7474296 ], [ -38.59835205, -3.74745409 ], [ -38.59832766, -3.74748017 ], [ -38.59829743, -3.74750466 ], [ -38.59826031, -3.74752647 ], [ -38.59822055, -3.74754456 ], [ -38.59817813, -3.74756105 ], [ -38.59813943, -3.74757008 ], [ -38.59810603, -3.74757379 ], [ -38.59807635, -3.74757378 ], [ -38.59804719, -3.74757377 ], [ -38.59802016, -3.74757109 ], [ -38.59800054, -3.74757241 ], [ -38.59782691, -3.74762532 ], [ -38.59773254, -3.74764392 ], [ -38.59764135, -3.7476673 ], [ -38.59754062, -3.74769708 ], [ -38.59747117, -3.74771142 ], [ -38.59739643, -3.74771618 ], [ -38.5973291, -3.74771242 ], [ -38.59722309, -3.74770652 ], [ -38.59711813, -3.74770381 ], [ -38.59699302, -3.74770002 ], [ -38.59690238, -3.74769252 ], [ -38.59684779, -3.74768025 ], [ -38.59680008, -3.74766851 ], [ -38.59675715, -3.7476621 ], [ -38.59669778, -3.74765569 ], [ -38.59665378, -3.74765886 ], [ -38.5966119, -3.74766896 ], [ -38.59656524, -3.74768491 ], [ -38.59649578, -3.74772109 ], [ -38.59635154, -3.74782487 ], [ -38.59623859, -3.74791161 ], [ -38.59606677, -3.74806756 ], [ -38.5960323, -3.74809098 ], [ -38.59599359, -3.74811599 ], [ -38.5959411, -3.74813833 ], [ -38.59587695, -3.74815268 ], [ -38.59581386, -3.7481649 ], [ -38.5957574, -3.74817126 ], [ -38.5957203, -3.74817391 ], [ -38.59569724, -3.74817177 ], [ -38.59566968, -3.74816483 ], [ -38.5956392, -3.74815576 ], [ -38.59561058, -3.74814217 ], [ -38.5955764, -3.74811766 ], [ -38.5955401, -3.74808276 ], [ -38.59551282, -3.74804175 ], [ -38.59549058, -3.74799461 ], [ -38.59548026, -3.74796159 ], [ -38.59547391, -3.74793496 ], [ -38.595462, -3.7479038 ], [ -38.59543895, -3.74786971 ], [ -38.5954159, -3.7478476 ], [ -38.59538516, -3.7478348 ], [ -38.59534302, -3.74782493 ], [ -38.59526855, -3.74782117 ], [ -38.5951938, -3.74782486 ], [ -38.59512806, -3.74783175 ], [ -38.59502707, -3.74784901 ], [ -38.5948728, -3.74786998 ], [ -38.59471376, -3.74788588 ], [ -38.59448687, -3.74789749 ], [ -38.59435965, -3.74790169 ], [ -38.59429603, -3.74790912 ], [ -38.59421863, -3.74792452 ], [ -38.59414971, -3.74793727 ], [ -38.59402459, -3.74797183 ], [ -38.59398801, -3.74798459 ], [ -38.59393923, -3.74800161 ], [ -38.59389098, -3.7480165 ], [ -38.59384645, -3.74803032 ], [ -38.59379184, -3.74804201 ], [ -38.59375765, -3.74804626 ], [ -38.59372664, -3.74804784 ], [ -38.59367177, -3.74805394 ], [ -38.59362909, -3.74806057 ], [ -38.59357078, -3.74807013 ], [ -38.59352121, -3.74807637 ], [ -38.5934845, -3.74807874 ], [ -38.59344898, -3.74807833 ], [ -38.59340618, -3.74807418 ], [ -38.59335317, -3.74807096 ], [ -38.59332243, -3.74806908 ], [ -38.5932938, -3.74806561 ], [ -38.59326915, -3.74806107 ], [ -38.5932514, -3.74806053 ], [ -38.59323337, -3.74806105 ], [ -38.59321349, -3.74806318 ], [ -38.59307433, -3.74808148 ], [ -38.59297069, -3.74809874 ], [ -38.59293331, -3.74810751 ], [ -38.59288931, -3.74812133 ], [ -38.59250651, -3.74826707 ], [ -38.59244288, -3.74828993 ], [ -38.59236866, -3.74831812 ], [ -38.59228383, -3.74834631 ], [ -38.5922043, -3.74836278 ], [ -38.59212637, -3.74837499 ], [ -38.59206435, -3.74838029 ], [ -38.59197211, -3.74838078 ], [ -38.59190267, -3.74838181 ], [ -38.59186132, -3.74838285 ], [ -38.59181573, -3.74838603 ], [ -38.5917924, -3.74838868 ], [ -38.59177597, -3.74839346 ], [ -38.59175105, -3.74840144 ], [ -38.5917081, -3.7484158 ], [ -38.59168213, -3.74841898 ], [ -38.59165085, -3.7484195 ], [ -38.59159572, -3.74841734 ], [ -38.59156922, -3.74841733 ], [ -38.59153423, -3.74841998 ], [ -38.59150878, -3.7484205 ], [ -38.59148976, -3.74842335 ], [ -38.59146372, -3.74843073 ], [ -38.5914321, -3.74844389 ], [ -38.59140049, -3.74845706 ], [ -38.59136948, -3.74846703 ], [ -38.5913325, -3.7484754 ], [ -38.59129751, -3.74847937 ], [ -38.59124423, -3.74847815 ], [ -38.59117824, -3.74847373 ], [ -38.59112774, -3.7484773 ], [ -38.59108798, -3.74848806 ], [ -38.5910343, -3.74849962 ], [ -38.5909854, -3.74850479 ], [ -38.59093053, -3.74850476 ], [ -38.59089674, -3.74850834 ], [ -38.59080051, -3.74853106 ], [ -38.59049713, -3.74859642 ], [ -38.59045538, -3.74860199 ], [ -38.59040251, -3.74860037 ], [ -38.59036235, -3.74860155 ], [ -38.59032975, -3.74860673 ], [ -38.59022358, -3.74863583 ], [ -38.59015996, -3.74865297 ], [ -38.59011145, -3.74865934 ], [ -38.59004426, -3.74866291 ], [ -38.59000251, -3.74866888 ], [ -38.58995679, -3.74868044 ], [ -38.58989436, -3.74869359 ], [ -38.58976912, -3.74870152 ], [ -38.58953931, -3.74871419 ], [ -38.58935881, -3.7487137 ], [ -38.58925743, -3.74871286 ], [ -38.5891481, -3.74870841 ], [ -38.58895608, -3.74868236 ], [ -38.58881894, -3.74863477 ], [ -38.58879589, -3.7486096 ], [ -38.58878478, -3.74857525 ], [ -38.58876611, -3.7485329 ], [ -38.58874189, -3.74847258 ], [ -38.58873316, -3.74843264 ], [ -38.58872761, -3.74839909 ], [ -38.58870576, -3.74835874 ], [ -38.58867835, -3.74831599 ], [ -38.58863861, -3.74828043 ], [ -38.58860323, -3.74826324 ], [ -38.5885762, -3.74825923 ], [ -38.58855791, -3.74826122 ], [ -38.58853206, -3.7482648 ], [ -38.58851457, -3.7482636 ], [ -38.58849072, -3.7482556 ], [ -38.58845694, -3.74823721 ], [ -38.58838222, -3.74818286 ], [ -38.58823674, -3.74809692 ], [ -38.5881179, -3.74803176 ], [ -38.58805113, -3.7479882 ], [ -38.58799748, -3.74793545 ], [ -38.58797125, -3.74791947 ], [ -38.58793547, -3.74790707 ], [ -38.58790446, -3.74790426 ], [ -38.58787186, -3.74789745 ], [ -38.58783966, -3.74788466 ], [ -38.58779435, -3.74785308 ], [ -38.58769858, -3.74775679 ], [ -38.58757223, -3.74760176 ], [ -38.58755315, -3.74758138 ], [ -38.58753011, -3.74755142 ], [ -38.58752097, -3.74752825 ], [ -38.58751105, -3.74750468 ], [ -38.58750071, -3.7474931 ], [ -38.58748323, -3.7474831 ], [ -38.58746255, -3.7474795 ], [ -38.58744029, -3.74747509 ], [ -38.58742479, -3.7474671 ], [ -38.58740929, -3.74745192 ], [ -38.58738426, -3.74741756 ], [ -38.58735048, -3.74738239 ], [ -38.58729524, -3.74733923 ], [ -38.58722529, -3.74729487 ], [ -38.58717322, -3.74725371 ], [ -38.58712752, -3.74722453 ], [ -38.58707584, -3.74719575 ], [ -38.58702735, -3.74717256 ], [ -38.58699317, -3.74714419 ], [ -38.586928, -3.74708145 ], [ -38.58689185, -3.74702832 ], [ -38.58686125, -3.74698597 ], [ -38.58682072, -3.74694322 ], [ -38.58675754, -3.7468689 ], [ -38.58674801, -3.74685012 ], [ -38.58674086, -3.74683414 ], [ -38.58672814, -3.74681457 ], [ -38.58671225, -3.74679978 ], [ -38.58669556, -3.7467862 ], [ -38.58666932, -3.74676941 ], [ -38.5866256, -3.74674942 ], [ -38.58660493, -3.74673823 ], [ -38.58659341, -3.74672744 ], [ -38.58658506, -3.74671865 ], [ -38.58657195, -3.74671145 ], [ -38.58655664, -3.74670665 ], [ -38.58653478, -3.74670025 ], [ -38.58651093, -3.74668846 ], [ -38.58647695, -3.74666608 ], [ -38.58634021, -3.74659891 ], [ -38.58630881, -3.74657454 ], [ -38.58628577, -3.74654577 ], [ -38.58627067, -3.7465186 ], [ -38.58626314, -3.74647986 ], [ -38.58625918, -3.7464499 ], [ -38.58625084, -3.74642434 ], [ -38.5862421, -3.74639837 ], [ -38.5862278, -3.746376 ], [ -38.58619561, -3.74634843 ], [ -38.58611971, -3.7462765 ], [ -38.58609705, -3.74626331 ], [ -38.58607798, -3.74624733 ], [ -38.58606566, -3.74622815 ], [ -38.58605255, -3.74620179 ], [ -38.58604143, -3.74618181 ], [ -38.58603229, -3.74617142 ], [ -38.58601719, -3.74615704 ], [ -38.58600686, -3.74614305 ], [ -38.58599812, -3.74611829 ], [ -38.58599178, -3.74608953 ], [ -38.58598941, -3.74605119 ], [ -38.58598506, -3.74601085 ], [ -38.58597871, -3.74598169 ], [ -38.58596123, -3.74594094 ], [ -38.58593899, -3.74589261 ], [ -38.58589491, -3.74578715 ], [ -38.58588817, -3.74575679 ], [ -38.58588102, -3.74573482 ], [ -38.5858711, -3.74569288 ], [ -38.58586476, -3.74565214 ], [ -38.58584689, -3.74561099 ], [ -38.58582424, -3.74557943 ], [ -38.58579881, -3.74555146 ], [ -38.58578172, -3.74552989 ], [ -38.58575749, -3.74549193 ], [ -38.58574279, -3.74547475 ], [ -38.58572292, -3.74545437 ], [ -38.58564662, -3.74536967 ], [ -38.58563748, -3.74535568 ], [ -38.58563034, -3.74533891 ], [ -38.58558152, -3.74515996 ], [ -38.58557556, -3.74514398 ], [ -38.58551757, -3.74502294 ], [ -38.58551122, -3.74500576 ], [ -38.58550845, -3.74498539 ], [ -38.58550488, -3.74496382 ], [ -38.58549932, -3.74494744 ], [ -38.5854886, -3.74492188 ], [ -38.5854449, -3.74483918 ], [ -38.58543855, -3.74482081 ], [ -38.58543419, -3.74479445 ], [ -38.58540522, -3.7446862 ], [ -38.58539767, -3.74467022 ], [ -38.58538257, -3.74464785 ], [ -38.58536151, -3.74462867 ], [ -38.58529157, -3.74456553 ], [ -38.58523394, -3.74452037 ], [ -38.58522043, -3.74450639 ], [ -38.58520652, -3.7444912 ], [ -38.58519579, -3.74448241 ], [ -38.58518029, -3.74447402 ], [ -38.5851636, -3.74446622 ], [ -38.584969, -3.74443877 ], [ -38.58487708, -3.744425 ], [ -38.58485679, -3.74442204 ], [ -38.58478106, -3.74440164 ], [ -38.5846976, -3.74434169 ], [ -38.5845897, -3.74424159 ], [ -38.58455991, -3.74419844 ], [ -38.58450985, -3.74411335 ], [ -38.58430783, -3.74380592 ], [ -38.58425361, -3.74370525 ], [ -38.58423811, -3.74368727 ], [ -38.58421963, -3.74366929 ], [ -38.58419936, -3.7436555 ], [ -38.58418029, -3.74363333 ], [ -38.58416837, -3.74361295 ], [ -38.58414336, -3.74354704 ], [ -38.58413264, -3.74351289 ], [ -38.58412072, -3.74348353 ], [ -38.58406294, -3.74334631 ], [ -38.58404805, -3.74331515 ], [ -38.58403613, -3.74329598 ], [ -38.5840105, -3.74326781 ], [ -38.58397057, -3.74321806 ], [ -38.58391812, -3.74315514 ], [ -38.58386327, -3.74310718 ], [ -38.58376968, -3.74302506 ], [ -38.58372557, -3.74299629 ], [ -38.58362838, -3.74294951 ], [ -38.58355623, -3.74292731 ], [ -38.58347514, -3.7429099 ], [ -38.5833988, -3.74290267 ], [ -38.58334036, -3.74290085 ], [ -38.58331412, -3.74290563 ], [ -38.5832843, -3.742917 ], [ -38.58326103, -3.74293077 ], [ -38.58323777, -3.74294154 ], [ -38.5832151, -3.74294632 ], [ -38.583199, -3.74294691 ], [ -38.58316442, -3.7429421 ], [ -38.58312029, -3.74292471 ], [ -38.58302789, -3.74285936 ], [ -38.58295933, -3.74280961 ], [ -38.58292118, -3.74277005 ], [ -38.58289973, -3.74274428 ], [ -38.58287588, -3.7427221 ], [ -38.58285025, -3.74270591 ], [ -38.58281328, -3.74269272 ], [ -38.58279301, -3.74267593 ], [ -38.58272922, -3.74262738 ], [ -38.58271312, -3.74261958 ], [ -38.58269762, -3.74261837 ], [ -38.58267138, -3.74261836 ], [ -38.58264394, -3.74262614 ], [ -38.58262903, -3.74263631 ], [ -38.58261173, -3.74264409 ], [ -38.58259503, -3.74264708 ], [ -38.58257297, -3.74264707 ], [ -38.58254613, -3.74264346 ], [ -38.58250141, -3.74263326 ], [ -38.58246146, -3.74261467 ], [ -38.58241139, -3.74257391 ], [ -38.58235953, -3.74250858 ], [ -38.5823208, -3.74245285 ], [ -38.58227849, -3.74237495 ], [ -38.58225525, -3.7423318 ], [ -38.58223916, -3.74231502 ], [ -38.58222485, -3.74230543 ], [ -38.58220041, -3.74229823 ], [ -38.58216641, -3.74229462 ], [ -38.58212228, -3.74229759 ], [ -38.58210022, -3.74229698 ], [ -38.58207636, -3.74229337 ], [ -38.58194877, -3.74224359 ], [ -38.58190107, -3.74221721 ], [ -38.58183429, -3.74218722 ], [ -38.58179017, -3.74217162 ], [ -38.58174008, -3.74216441 ], [ -38.58167567, -3.74215959 ], [ -38.58161366, -3.74214758 ], [ -38.58150126, -3.74211787 ], [ -38.58141718, -3.74210405 ], [ -38.58130746, -3.74208542 ], [ -38.58121026, -3.74205902 ], [ -38.58101469, -3.74199362 ], [ -38.58095089, -3.74197323 ], [ -38.58089364, -3.74196541 ], [ -38.58076126, -3.74194618 ], [ -38.58070282, -3.74192578 ], [ -38.5806438, -3.74189999 ], [ -38.58058179, -3.74186821 ], [ -38.58052693, -3.74184721 ], [ -38.58046492, -3.741834 ], [ -38.58037964, -3.74182438 ], [ -38.58018345, -3.7418171 ], [ -38.58013157, -3.74180569 ], [ -38.58008446, -3.7417847 ], [ -38.57992707, -3.74169596 ], [ -38.57988473, -3.74167856 ], [ -38.57981259, -3.74165636 ], [ -38.5795061, -3.74156516 ], [ -38.57919366, -3.74145597 ], [ -38.57890449, -3.74132583 ], [ -38.57880969, -3.74126947 ], [ -38.57875664, -3.74122152 ], [ -38.5787185, -3.7411604 ], [ -38.57867799, -3.74107591 ], [ -38.57863389, -3.74101298 ], [ -38.57858144, -3.74094825 ], [ -38.57851292, -3.74081762 ], [ -38.57847778, -3.74072055 ], [ -38.57845872, -3.74067382 ], [ -38.57844144, -3.74065524 ], [ -38.57841819, -3.74064085 ], [ -38.57839016, -3.74062765 ], [ -38.57837347, -3.74061866 ], [ -38.57836155, -3.74060607 ], [ -38.57835261, -3.74059229 ], [ -38.57834606, -3.74056892 ], [ -38.57834548, -3.74053358 ], [ -38.57834013, -3.74050062 ], [ -38.57832941, -3.74046767 ], [ -38.57825017, -3.74030288 ], [ -38.57816138, -3.74017763 ], [ -38.57810535, -3.7401177 ], [ -38.57799152, -3.7399517 ], [ -38.57788962, -3.73979529 ], [ -38.57782585, -3.73971498 ], [ -38.57772272, -3.73962327 ], [ -38.57762138, -3.73954294 ], [ -38.57745147, -3.73943083 ], [ -38.57739543, -3.73940445 ], [ -38.577337, -3.73937027 ], [ -38.57728752, -3.73932771 ], [ -38.57723746, -3.73926718 ], [ -38.57717845, -3.73919946 ], [ -38.57706161, -3.73910115 ], [ -38.57694357, -3.73902501 ], [ -38.57660911, -3.73882535 ], [ -38.57634439, -3.73868085 ], [ -38.57629669, -3.73866345 ], [ -38.57625615, -3.73865384 ], [ -38.57621142, -3.73865203 ], [ -38.57616072, -3.73866099 ], [ -38.57610645, -3.73867534 ], [ -38.57603786, -3.73869807 ], [ -38.57598478, -3.73870823 ], [ -38.57592036, -3.73872258 ], [ -38.57584402, -3.73873752 ], [ -38.57575874, -3.73874826 ], [ -38.57568956, -3.73874463 ], [ -38.57562457, -3.73873022 ], [ -38.57541348, -3.7386768 ], [ -38.5752978, -3.738642 ], [ -38.57518213, -3.73859641 ], [ -38.5749818, -3.73851364 ], [ -38.57486851, -3.73846326 ], [ -38.57483275, -3.73843449 ], [ -38.57479877, -3.73840751 ], [ -38.57476955, -3.73839312 ], [ -38.57472126, -3.73837273 ], [ -38.57464195, -3.73834693 ], [ -38.57454476, -3.73831154 ], [ -38.57441896, -3.73826055 ], [ -38.57431223, -3.73822575 ], [ -38.57423293, -3.73819097 ], [ -38.57416735, -3.7381532 ], [ -38.57411489, -3.73810884 ], [ -38.57406125, -3.73804591 ], [ -38.57401714, -3.73798837 ], [ -38.57400209, -3.73797084 ], [ -38.57399375, -3.7379647 ], [ -38.57398406, -3.7379599 ], [ -38.57396677, -3.7379581 ], [ -38.57395424, -3.73795959 ], [ -38.57393471, -3.73796048 ], [ -38.57391444, -3.73795777 ], [ -38.57389401, -3.73794967 ], [ -38.57386704, -3.73793618 ], [ -38.57379043, -3.73789121 ], [ -38.57375481, -3.73785795 ], [ -38.57370504, -3.73779442 ], [ -38.57359539, -3.73764639 ], [ -38.57355784, -3.73759665 ], [ -38.57354368, -3.73758167 ], [ -38.57352371, -3.73756818 ], [ -38.57349509, -3.73755498 ], [ -38.57346946, -3.73754209 ], [ -38.57344978, -3.7375331 ], [ -38.57343637, -3.7375253 ], [ -38.57342564, -3.73751631 ], [ -38.5734164, -3.73750283 ], [ -38.5734012, -3.73747915 ], [ -38.57339077, -3.73746747 ], [ -38.57337587, -3.73745308 ], [ -38.5733404, -3.73742311 ], [ -38.57332937, -3.73741652 ], [ -38.57331894, -3.73741112 ], [ -38.57330702, -3.73740303 ], [ -38.57330076, -3.73739613 ], [ -38.57329689, -3.73737277 ], [ -38.57331879, -3.73719594 ], [ -38.57112058, -3.73694213 ], [ -38.5697669, -3.73682147 ], [ -38.56922346, -3.73673032 ], [ -38.56923815, -3.73716832 ], [ -38.56924957, -3.7374027 ], [ -38.56927686, -3.73796192 ], [ -38.56928828, -3.73820016 ], [ -38.56928566, -3.73831574 ], [ -38.56927279, -3.73842165 ], [ -38.56918292, -3.73870233 ], [ -38.56908413, -3.73887742 ], [ -38.56896998, -3.73900871 ], [ -38.56858423, -3.73949077 ], [ -38.56822672, -3.73992576 ], [ -38.56788232, -3.74038025 ], [ -38.567566, -3.74093741 ], [ -38.56721107, -3.74139635 ], [ -38.5670437, -3.74158847 ], [ -38.56689484, -3.74175936 ], [ -38.5666406, -3.74196585 ], [ -38.56652648, -3.74205733 ], [ -38.56621472, -3.74231635 ], [ -38.56595993, -3.74257661 ], [ -38.56542427, -3.74319302 ], [ -38.56493354, -3.74378986 ], [ -38.56485846, -3.74392101 ], [ -38.56400333, -3.74498598 ], [ -38.56314492, -3.74605213 ], [ -38.56223787, -3.74712542 ], [ -38.56137638, -3.74812293 ], [ -38.56041241, -3.74923807 ], [ -38.56010381, -3.74961561 ], [ -38.55985125, -3.74997637 ], [ -38.55944625, -3.75051065 ], [ -38.55941038, -3.75055584 ], [ -38.55920581, -3.75081177 ], [ -38.558991, -3.7510501 ], [ -38.55874396, -3.75133394 ], [ -38.55852378, -3.75158724 ], [ -38.55844978, -3.75167347 ], [ -38.55838355, -3.75175191 ], [ -38.55825704, -3.75190282 ], [ -38.55806848, -3.75212438 ], [ -38.55770627, -3.75254775 ], [ -38.55754575, -3.75274057 ], [ -38.55737271, -3.75293219 ], [ -38.55724442, -3.75306632 ], [ -38.55708451, -3.75323637 ], [ -38.55693415, -3.75340044 ], [ -38.55674142, -3.75360403 ], [ -38.55660836, -3.75374355 ], [ -38.55646932, -3.75390164 ], [ -38.55638698, -3.75399625 ], [ -38.55627898, -3.75410583 ], [ -38.55615606, -3.75423876 ], [ -38.55608386, -3.75431301 ], [ -38.5558607, -3.75455073 ], [ -38.55566081, -3.7547621 ], [ -38.55544839, -3.75498366 ], [ -38.55540884, -3.75502455 ], [ -38.55528177, -3.75515593 ], [ -38.55538036, -3.75525633 ], [ -38.55518815, -3.75542984 ], [ -38.55475021, -3.755831 ], [ -38.55414999, -3.75637705 ], [ -38.55377649, -3.75671834 ], [ -38.55351561, -3.75694705 ], [ -38.55359369, -3.75703336 ], [ -38.55367594, -3.75712895 ], [ -38.5538768, -3.7573585 ], [ -38.5539984, -3.75749216 ], [ -38.55416767, -3.75768335 ], [ -38.55428866, -3.75781821 ], [ -38.55452409, -3.75808013 ], [ -38.55466297, -3.75824135 ], [ -38.5547631, -3.75835283 ], [ -38.55484714, -3.75844453 ], [ -38.55491688, -3.75852485 ], [ -38.55499138, -3.75860935 ], [ -38.55510939, -3.75873942 ], [ -38.55522503, -3.75886828 ], [ -38.55537642, -3.75903969 ], [ -38.55548668, -3.75916555 ], [ -38.55557787, -3.75926864 ], [ -38.55579662, -3.75951018 ], [ -38.55587112, -3.75959529 ], [ -38.55597543, -3.75971157 ], [ -38.55622706, -3.75998743 ], [ -38.55642508, -3.76020857 ], [ -38.5565812, -3.76038696 ], [ -38.55671898, -3.76055106 ], [ -38.55683819, -3.76069022 ], [ -38.55692655, -3.76080086 ], [ -38.55699907, -3.76089056 ], [ -38.55706575, -3.76098444 ], [ -38.55715161, -3.76111017 ], [ -38.55722245, -3.76121411 ], [ -38.5572933, -3.7613281 ], [ -38.55737331, -3.76145969 ], [ -38.55745081, -3.76159715 ], [ -38.55753164, -3.76175053 ], [ -38.55761747, -3.76192234 ], [ -38.5576833, -3.76206231 ], [ -38.55773246, -3.76217126 ], [ -38.55790324, -3.76258277 ], [ -38.55809319, -3.7630412 ], [ -38.55824732, -3.7634108 ], [ -38.55832084, -3.76359402 ], [ -38.5584508, -3.76391585 ], [ -38.55857993, -3.76422678 ], [ -38.55868074, -3.76447234 ], [ -38.55877571, -3.76470617 ], [ -38.55898816, -3.76522327 ], [ -38.55920726, -3.76576048 ], [ -38.55938221, -3.76618623 ], [ -38.5595805, -3.76666729 ], [ -38.55971441, -3.76699364 ], [ -38.55981364, -3.76723638 ], [ -38.56380477, -3.76556119 ], [ -38.56474355, -3.7651502 ], [ -38.56508541, -3.7650005 ], [ -38.56538659, -3.7648426 ], [ -38.56670831, -3.76413909 ], [ -38.5675024, -3.76537601 ], [ -38.56802945, -3.76610188 ], [ -38.56828443, -3.76636115 ], [ -38.56906668, -3.76690286 ], [ -38.56936177, -3.7671967 ], [ -38.56968834, -3.76761437 ], [ -38.56981719, -3.76787933 ], [ -38.57038052, -3.77009139 ], [ -38.57041428, -3.77017833 ], [ -38.57045379, -3.77025512 ], [ -38.57060723, -3.77059667 ], [ -38.57085757, -3.77102699 ], [ -38.57128411, -3.77147058 ], [ -38.57173085, -3.77192313 ], [ -38.57215815, -3.77236494 ], [ -38.57284404, -3.77309304 ], [ -38.57321492, -3.77347949 ], [ -38.57463353, -3.77503658 ], [ -38.57486948, -3.77529419 ], [ -38.57514085, -3.77559568 ], [ -38.57576267, -3.77628771 ], [ -38.57596161, -3.77651287 ], [ -38.5762028, -3.77678002 ], [ -38.57673046, -3.77656983 ], [ -38.57694441, -3.77648659 ], [ -38.57700511, -3.77646799 ], [ -38.57705469, -3.77645417 ], [ -38.57709471, -3.77644806 ], [ -38.57765984, -3.77640121 ], [ -38.57777276, -3.77638875 ], [ -38.57790345, -3.77636778 ], [ -38.5779737, -3.77635397 ], [ -38.57805508, -3.77633297 ], [ -38.57811367, -3.7763141 ], [ -38.57819001, -3.77628556 ], [ -38.57825735, -3.77626038 ], [ -38.57858556, -3.77612315 ], [ -38.5786158, -3.77611037 ], [ -38.57893021, -3.77597741 ], [ -38.57903678, -3.77593912 ], [ -38.57911419, -3.77591413 ], [ -38.57919849, -3.77588914 ], [ -38.57931248, -3.77586044 ], [ -38.57946358, -3.77582484 ], [ -38.57969686, -3.7757733 ], [ -38.58002292, -3.77569997 ], [ -38.58036329, -3.77562611 ], [ -38.58091944, -3.77550497 ], [ -38.58125637, -3.77542552 ], [ -38.58146791, -3.77537557 ], [ -38.58160707, -3.77534207 ], [ -38.58171093, -3.77531724 ], [ -38.58176102, -3.775305 ], [ -38.58190856, -3.77526949 ], [ -38.58193261, -3.7752637 ], [ -38.58195806, -3.77525705 ], [ -38.58199146, -3.77524668 ], [ -38.5820315, -3.77523286 ], [ -38.58207113, -3.7752141 ], [ -38.58209937, -3.77519841 ], [ -38.58213436, -3.77517713 ], [ -38.58217732, -3.77514519 ], [ -38.58222081, -3.77511113 ], [ -38.58228922, -3.77505366 ], [ -38.5824409, -3.77492166 ], [ -38.58261391, -3.77477115 ], [ -38.58264401, -3.77474497 ], [ -38.58282857, -3.77458264 ], [ -38.58301472, -3.77442084 ], [ -38.58317594, -3.77428087 ], [ -38.58337854, -3.77409831 ], [ -38.58341513, -3.77406105 ], [ -38.58345332, -3.77402167 ], [ -38.58348833, -3.77398174 ], [ -38.58351272, -3.77395406 ], [ -38.58362253, -3.77380874 ], [ -38.58365595, -3.77376562 ], [ -38.58368989, -3.77372783 ], [ -38.5837302, -3.77369004 ], [ -38.58376997, -3.77365438 ], [ -38.5838124, -3.77362085 ], [ -38.58385164, -3.77359211 ], [ -38.58388717, -3.7735703 ], [ -38.58425173, -3.77335587 ], [ -38.58439306, -3.77327261 ], [ -38.58440391, -3.77326621 ], [ -38.5844922, -3.77321487 ], [ -38.58459348, -3.7731614 ], [ -38.58465854, -3.77313481 ], [ -38.58467573, -3.77312992 ], [ -38.58472282, -3.7731201 ], [ -38.58473769, -3.773117 ], [ -38.58478965, -3.77311441 ], [ -38.58483285, -3.77311225 ], [ -38.58486759, -3.77311256 ], [ -38.5848962, -3.77311282 ], [ -38.58493087, -3.77311672 ], [ -38.58495796, -3.77311977 ], [ -38.58500646, -3.77312751 ], [ -38.58506158, -3.77314006 ], [ -38.585093, -3.77314933 ], [ -38.58511485, -3.77315579 ], [ -38.58516706, -3.77317286 ], [ -38.58521688, -3.77319152 ], [ -38.58526936, -3.77321178 ], [ -38.5853213, -3.77323577 ], [ -38.58537059, -3.77325922 ], [ -38.58546254, -3.77330746 ], [ -38.58549126, -3.77332402 ], [ -38.58550043, -3.77332931 ], [ -38.5855423, -3.77335276 ], [ -38.5855847, -3.77337701 ], [ -38.58586426, -3.77353583 ], [ -38.58610169, -3.77367174 ], [ -38.58619761, -3.7737245 ], [ -38.5862999, -3.77377461 ], [ -38.58639689, -3.77381566 ], [ -38.58646368, -3.77384285 ], [ -38.58647567, -3.77384724 ], [ -38.5865612, -3.77387858 ], [ -38.58667675, -3.77391165 ], [ -38.58673771, -3.77392392 ], [ -38.58680291, -3.77393567 ], [ -38.58687659, -3.7739405 ], [ -38.58747667, -3.7739754 ], [ -38.58792619, -3.7740049 ], [ -38.58824637, -3.77402955 ], [ -38.58850971, -3.77405349 ], [ -38.58864077, -3.77406541 ], [ -38.58902575, -3.77381851 ], [ -38.58937095, -3.77360566 ], [ -38.58962336, -3.77345029 ], [ -38.58972729, -3.77339229 ], [ -38.58986888, -3.77330077 ], [ -38.58998766, -3.77321988 ], [ -38.59023213, -3.77303788 ], [ -38.59035887, -3.77295113 ], [ -38.59048773, -3.77285907 ], [ -38.59066304, -3.77270963 ], [ -38.59070251, -3.77267599 ], [ -38.59078365, -3.77261478 ], [ -38.59086531, -3.77256264 ], [ -38.5909475, -3.77251741 ], [ -38.59130996, -3.77282271 ], [ -38.59148695, -3.77296285 ], [ -38.59155312, -3.77302409 ], [ -38.5916136, -3.77308006 ], [ -38.59166394, -3.77312109 ], [ -38.59169944, -3.7731504 ], [ -38.59182292, -3.77323672 ], [ -38.59195646, -3.77333264 ], [ -38.59202589, -3.77338592 ], [ -38.59208099, -3.77343973 ], [ -38.59214034, -3.77349781 ], [ -38.5926543, -3.77403696 ], [ -38.59395462, -3.77303217 ], [ -38.59506191, -3.77216522 ], [ -38.59556199, -3.77177512 ], [ -38.59561287, -3.77179324 ], [ -38.59571993, -3.7718327 ], [ -38.59577824, -3.77185616 ], [ -38.59583335, -3.77189346 ], [ -38.59589482, -3.77195313 ], [ -38.59594779, -3.7720309 ], [ -38.59598195, -3.77210787 ], [ -38.59600205, -3.77220054 ], [ -38.59600477, -3.77224845 ], [ -38.59601257, -3.77238586 ], [ -38.5960162, -3.77254881 ], [ -38.59602888, -3.77264999 ], [ -38.59609878, -3.77282416 ], [ -38.59611787, -3.77287552 ], [ -38.59619425, -3.77285008 ], [ -38.59631944, -3.77280239 ], [ -38.59637497, -3.77277791 ], [ -38.59644641, -3.77274496 ], [ -38.59666538, -3.77258845 ], [ -38.59689128, -3.77243679 ], [ -38.5969512, -3.77239368 ], [ -38.5970159, -3.77235218 ], [ -38.59707582, -3.77231919 ], [ -38.59714369, -3.77228674 ], [ -38.59720519, -3.77226227 ], [ -38.5974809, -3.7721511 ], [ -38.5978311, -3.7720021 ], [ -38.59796439, -3.77264469 ], [ -38.59801245, -3.77282554 ], [ -38.59806263, -3.77294961 ], [ -38.59816513, -3.77307581 ], [ -38.59834297, -3.77321887 ], [ -38.59853132, -3.77329044 ], [ -38.59867364, -3.77330943 ], [ -38.59884737, -3.7733011 ], [ -38.59995887, -3.7731292 ], [ -38.60009492, -3.77313137 ], [ -38.60026025, -3.7731756 ], [ -38.60036906, -3.77323242 ], [ -38.60045904, -3.77328292 ], [ -38.60064104, -3.77351008 ], [ -38.60108868, -3.77412213 ], [ -38.60134809, -3.7744082 ], [ -38.60144432, -3.77450496 ], [ -38.60177705, -3.77467331 ], [ -38.60206586, -3.77474704 ], [ -38.60358874, -3.77491176 ], [ -38.60367745, -3.77492439 ], [ -38.60537066, -3.77512701 ], [ -38.60590408, -3.77519171 ], [ -38.60594597, -3.77519659 ], [ -38.60598597, -3.77520125 ], [ -38.6071308, -3.77543478 ], [ -38.60762682, -3.77552752 ], [ -38.60888703, -3.77569362 ], [ -38.60983934, -3.77581685 ], [ -38.61019114, -3.77586238 ], [ -38.61154385, -3.77603742 ], [ -38.61260388, -3.77617945 ], [ -38.61312503, -3.77623224 ], [ -38.61454508, -3.77637404 ], [ -38.61649854, -3.77657861 ], [ -38.61794415, -3.77672743 ], [ -38.61957877, -3.77690897 ], [ -38.62061899, -3.77700194 ], [ -38.62117364, -3.77705685 ], [ -38.62119309, -3.77705892 ] ] ] ] } }
]
}
