{
"type": "FeatureCollection",
"crs": { "type": "name", "properties": { "name": "urn:ogc:def:crs:OGC:1.3:CRS84" } },
"features": [
{ "type": "Feature", "properties": { "id": 7, "ibge_codig": "230440005120411", "area_setor": "156053.59" }, "geometry": { "type": "MultiPolygon", "coordinates": [ [ [ [ -38.48185512, -3.73874598 ], [ -38.48196708, -3.73894398 ], [ -38.48373108, -3.73836096 ], [ -38.48377433, -3.73834472 ], [ -38.48380456, -3.73833338 ], [ -38.48384808, -3.73831704 ], [ -38.48571792, -3.73770603 ], [ -38.48582088, -3.73766301 ], [ -38.48588712, -3.73755096 ], [ -38.48559012, -3.73708503 ], [ -38.48568516, -3.73703697 ], [ -38.48583384, -3.73696704 ], [ -38.48532588, -3.73618098 ], [ -38.48525208, -3.73623597 ], [ -38.48519988, -3.736143 ], [ -38.48508792, -3.73621401 ], [ -38.48504796, -3.73622904 ], [ -38.48488812, -3.73628601 ], [ -38.48474916, -3.73631202 ], [ -38.48476716, -3.736224 ], [ -38.48474592, -3.736125 ], [ -38.48440284, -3.73556097 ], [ -38.48382504, -3.73491099 ], [ -38.48353992, -3.73501404 ], [ -38.483352, -3.735072 ], [ -38.48301216, -3.73518702 ], [ -38.48275188, -3.73529502 ], [ -38.48208696, -3.73554504 ], [ -38.48198796, -3.735612 ], [ -38.48052492, -3.73664097 ], [ -38.48095404, -3.73735404 ], [ -38.48142492, -3.73805496 ], [ -38.48185512, -3.73874598 ] ] ] ] } },
{ "type": "Feature", "properties": { "id": 104, "ibge_codig": "230440070100040", "area_setor": "34731.19" }, "geometry": { "type": "MultiPolygon", "coordinates": [ [ [ [ -38.59711488, -3.81136896 ], [ -38.59745688, -3.81194901 ], [ -38.59792812, -3.81274596 ], [ -38.59798716, -3.81287799 ], [ -38.59896312, -3.81225897 ], [ -38.59930404, -3.81205404 ], [ -38.59925688, -3.811995 ], [ -38.598822, -3.81124503 ], [ -38.59864884, -3.81096702 ], [ -38.59835688, -3.81049902 ], [ -38.5978319, -3.81079717 ], [ -38.59782696, -3.81079998 ], [ -38.59703712, -3.81123396 ], [ -38.59711488, -3.81136896 ] ] ] ] } },
{ "type": "Feature", "properties": { "id": 259, "ibge_codig": "230440065110057", "area_setor": "141084.24" }, "geometry": { "type": "MultiPolygon", "coordinates": [ [ [ [ -38.48456592, -3.81659796 ], [ -38.48470992, -3.81751299 ], [ -38.48575212, -3.81724002 ], [ -38.487456, -3.81679299 ], [ -38.48775084, -3.81673503 ], [ -38.48801112, -3.81672801 ], [ -38.48842008, -3.81672702 ], [ -38.48871204, -3.816774 ], [ -38.48915592, -3.81702204 ], [ -38.48913792, -3.817206 ], [ -38.48924304, -3.81767697 ], [ -38.48930388, -3.81809304 ], [ -38.48931504, -3.81829302 ], [ -38.48934312, -3.81857598 ], [ -38.48935212, -3.81874599 ], [ -38.48936508, -3.81902103 ], [ -38.48938, -3.819221 ], [ -38.49031276, -3.81914114 ], [ -38.49024232, -3.81841663 ], [ -38.49020207, -3.81784306 ], [ -38.49017188, -3.81727956 ], [ -38.49055426, -3.81726949 ], [ -38.491024, -3.817185 ], [ -38.49200316, -3.81698199 ], [ -38.49207408, -3.81654198 ], [ -38.49197904, -3.815793 ], [ -38.49194592, -3.81558699 ], [ -38.49198012, -3.81534903 ], [ -38.49201612, -3.81491802 ], [ -38.49181992, -3.81497103 ], [ -38.49148404, -3.81507201 ], [ -38.49102684, -3.81519099 ], [ -38.49084108, -3.81523896 ], [ -38.49057792, -3.81530196 ], [ -38.49028596, -3.81537801 ], [ -38.48930784, -3.81563802 ], [ -38.48897988, -3.81572496 ], [ -38.48866416, -3.81580101 ], [ -38.48796792, -3.81580398 ], [ -38.48772312, -3.81582702 ], [ -38.486358, -3.81616002 ], [ -38.48456592, -3.81659796 ] ] ] ] } },
{ "type": "Feature", "properties": { "id": 348, "ibge_codig": "230440005080267", "area_setor": "61136.87" }, "geometry": { "type": "MultiPolygon", "coordinates": [ [ [ [ -38.54865888, -3.73362696 ], [ -38.54855808, -3.73418802 ], [ -38.54844108, -3.73474197 ], [ -38.54872584, -3.73480497 ], [ -38.54954088, -3.73496499 ], [ -38.54990592, -3.73504401 ], [ -38.55024504, -3.735117 ], [ -38.55062304, -3.73518504 ], [ -38.55171204, -3.73539798 ], [ -38.55277692, -3.73564296 ], [ -38.55290508, -3.735108 ], [ -38.55299508, -3.73451103 ], [ -38.55194388, -3.73431798 ], [ -38.55084012, -3.734091 ], [ -38.55046896, -3.73401198 ], [ -38.54976696, -3.73386798 ], [ -38.54865888, -3.73362696 ] ] ] ] } },
{ "type": "Feature", "properties": { "id": 382, "ibge_codig": "230440005120698", "area_setor": "42922.05" }, "geometry": { "type": "MultiPolygon", "coordinates": [ [ [ [ -38.47136112, -3.748716 ], [ -38.47145112, -3.74901201 ], [ -38.47150908, -3.74923296 ], [ -38.47157231, -3.7494461 ], [ -38.47298012, -3.74899048 ], [ -38.47493315, -3.74837022 ], [ -38.47493484, -3.74836797 ], [ -38.47485888, -3.74814 ], [ -38.47479516, -3.74791104 ], [ -38.47472712, -3.74769801 ], [ -38.47464108, -3.74740101 ], [ -38.47439304, -3.74749101 ], [ -38.47254084, -3.74808798 ], [ -38.47203684, -3.74826996 ], [ -38.47195188, -3.74832297 ], [ -38.47171212, -3.74835699 ], [ -38.47128408, -3.74850099 ], [ -38.47136112, -3.748716 ] ] ] ] } },
{ "type": "Feature", "properties": { "id": 440, "ibge_codig": "230440060060124", "area_setor": "91385.05" }, "geometry": { "type": "MultiPolygon", "coordinates": [ [ [ [ -38.58740496, -3.75945903 ], [ -38.58666084, -3.75984801 ], [ -38.58591816, -3.76024203 ], [ -38.58614892, -3.76067997 ], [ -38.58644916, -3.76121196 ], [ -38.58569316, -3.76162704 ], [ -38.58622596, -3.76257096 ], [ -38.58674004, -3.763584 ], [ -38.58748416, -3.76317 ], [ -38.58821208, -3.76279704 ], [ -38.58896484, -3.76237503 ], [ -38.588688, -3.76186599 ], [ -38.58844608, -3.76142103 ], [ -38.58793416, -3.76042797 ], [ -38.58740496, -3.75945903 ] ] ] ] } },
{ "type": "Feature", "properties": { "id": 841, "ibge_codig": "230440075130088", "area_setor": "817845.17" }, "geometry": { "type": "MultiPolygon", "coordinates": [ [ [ [ -38.5695, -3.77162496 ], [ -38.56979304, -3.77122104 ], [ -38.57031792, -3.77049501 ], [ -38.57045508, -3.77026398 ], [ -38.57037912, -3.77015103 ], [ -38.57015988, -3.769155 ], [ -38.56985363, -3.76797843 ], [ -38.56967784, -3.76757397 ], [ -38.56957884, -3.76742799 ], [ -38.56922316, -3.76704702 ], [ -38.569086, -3.76691697 ], [ -38.568843, -3.76673904 ], [ -38.56849812, -3.76650099 ], [ -38.568213, -3.766293 ], [ -38.56808916, -3.76613298 ], [ -38.56795812, -3.76598403 ], [ -38.567691, -3.7656 ], [ -38.56731912, -3.76504803 ], [ -38.56672116, -3.76413498 ], [ -38.56504896, -3.76501797 ], [ -38.564358, -3.765311 ], [ -38.56365108, -3.76561899 ], [ -38.56302, -3.76588503 ], [ -38.56234788, -3.76617699 ], [ -38.56167612, -3.76644402 ], [ -38.56189284, -3.76711299 ], [ -38.56112784, -3.76739199 ], [ -38.56004604, -3.76776396 ], [ -38.55982716, -3.76724403 ], [ -38.55960288, -3.76744896 ], [ -38.55955716, -3.76789302 ], [ -38.55957984, -3.76818498 ], [ -38.559618, -3.76843104 ], [ -38.55965112, -3.76864902 ], [ -38.55997584, -3.76956801 ], [ -38.56033584, -3.77054802 ], [ -38.56054212, -3.77119602 ], [ -38.56062312, -3.77149797 ], [ -38.56070808, -3.771468 ], [ -38.561472, -3.77120502 ], [ -38.56158396, -3.771171 ], [ -38.56299516, -3.77068896 ], [ -38.56310604, -3.77100396 ], [ -38.56309992, -3.77113302 ], [ -38.56301892, -3.77133102 ], [ -38.56303008, -3.77144802 ], [ -38.56335408, -3.77215398 ], [ -38.56387212, -3.77263197 ], [ -38.56353984, -3.77309196 ], [ -38.56345488, -3.77320104 ], [ -38.56353804, -3.773187 ], [ -38.56362804, -3.77322804 ], [ -38.56385808, -3.77340003 ], [ -38.56459104, -3.77401104 ], [ -38.56465692, -3.77393499 ], [ -38.56477392, -3.77376201 ], [ -38.56491, -3.77369703 ], [ -38.56495104, -3.77367804 ], [ -38.56509288, -3.77367003 ], [ -38.56529484, -3.773745 ], [ -38.56588308, -3.77404803 ], [ -38.56613508, -3.77414802 ], [ -38.56645404, -3.77426601 ], [ -38.56676508, -3.77434998 ], [ -38.56704192, -3.77431596 ], [ -38.56746492, -3.77404902 ], [ -38.56775292, -3.77360604 ], [ -38.56837788, -3.772782 ], [ -38.56851504, -3.77288001 ], [ -38.5695, -3.77162496 ] ] ] ] } },
{ "type": "Feature", "properties": { "id": 1164, "ibge_codig": "230440005070836", "area_setor": "72763.32" }, "geometry": { "type": "MultiPolygon", "coordinates": [ [ [ [ -38.57802012, -3.70709397 ], [ -38.57757588, -3.70606896 ], [ -38.57723316, -3.70535301 ], [ -38.57709492, -3.70506501 ], [ -38.57708083, -3.70502117 ], [ -38.57706381, -3.7049682 ], [ -38.57704992, -3.70492497 ], [ -38.57666004, -3.70408896 ], [ -38.57662584, -3.70400499 ], [ -38.57619384, -3.70300599 ], [ -38.57513184, -3.70352097 ], [ -38.57524092, -3.70379502 ], [ -38.575557, -3.70463904 ], [ -38.575872, -3.70552203 ], [ -38.57588621, -3.70556447 ], [ -38.57589583, -3.70559318 ], [ -38.57591016, -3.70563597 ], [ -38.576322, -3.70672803 ], [ -38.57669604, -3.70774602 ], [ -38.57768316, -3.70727001 ], [ -38.57802012, -3.70709397 ] ] ] ] } },
{ "type": "Feature", "properties": { "id": 1422, "ibge_codig": "230440005080354", "area_setor": "50342.48" }, "geometry": { "type": "MultiPolygon", "coordinates": [ [ [ [ -38.51383392, -3.72393999 ], [ -38.51381916, -3.72337596 ], [ -38.51383754, -3.72333069 ], [ -38.51406367, -3.72277369 ], [ -38.51408304, -3.72272598 ], [ -38.51398404, -3.722382 ], [ -38.513826, -3.721662 ], [ -38.513178, -3.72186 ], [ -38.51262216, -3.72210597 ], [ -38.51233596, -3.72120597 ], [ -38.51221788, -3.72072501 ], [ -38.51163216, -3.72084696 ], [ -38.51187192, -3.72156903 ], [ -38.512098, -3.72232197 ], [ -38.51222508, -3.722715 ], [ -38.51224014, -3.72276517 ], [ -38.51224488, -3.72278097 ], [ -38.51242884, -3.72338001 ], [ -38.51259912, -3.72402504 ], [ -38.51309016, -3.723984 ], [ -38.51383392, -3.72393999 ] ] ] ] } },
{ "type": "Feature", "properties": { "id": 2167, "ibge_codig": "230440065110236", "area_setor": "62962.88" }, "geometry": { "type": "MultiPolygon", "coordinates": [ [ [ [ -38.523897, -3.84567399 ], [ -38.52432396, -3.84615801 ], [ -38.524671, -3.84758901 ], [ -38.52525888, -3.84736797 ], [ -38.52532908, -3.84745896 ], [ -38.52566388, -3.84722496 ], [ -38.52549504, -3.84694902 ], [ -38.525238, -3.846555 ], [ -38.52496188, -3.84621498 ], [ -38.52633096, -3.84506604 ], [ -38.52767484, -3.84394104 ], [ -38.52738504, -3.84360201 ], [ -38.52705879, -3.84317019 ], [ -38.52565416, -3.844296 ], [ -38.52429804, -3.84539904 ], [ -38.523897, -3.84567399 ] ] ] ] } },
{ "type": "Feature", "properties": { "id": 2361, "ibge_codig": "230440070100141", "area_setor": "58963.27" }, "geometry": { "type": "MultiPolygon", "coordinates": [ [ [ [ -38.60701704, -3.77921196 ], [ -38.60723088, -3.77991603 ], [ -38.607444, -3.78062901 ], [ -38.607615, -3.78135 ], [ -38.60771688, -3.78132399 ], [ -38.60970588, -3.78076302 ], [ -38.60952804, -3.78005904 ], [ -38.60932104, -3.77938899 ], [ -38.6093108, -3.77935484 ], [ -38.60930304, -3.77932896 ], [ -38.60913888, -3.77861103 ], [ -38.60804196, -3.77893503 ], [ -38.60767512, -3.77904204 ], [ -38.60710812, -3.77918199 ], [ -38.60701704, -3.77921196 ] ] ] ] } },
{ "type": "Feature", "properties": { "id": 2615, "ibge_codig": "230440070140394", "area_setor": "87865.26" }, "geometry": { "type": "MultiPolygon", "coordinates": [ [ [ [ -38.55750804, -3.82138398 ], [ -38.55548592, -3.821994 ], [ -38.55554496, -3.82211802 ], [ -38.55603996, -3.82372101 ], [ -38.55557484, -3.82387599 ], [ -38.555685, -3.82425399 ], [ -38.55563316, -3.82435803 ], [ -38.55561228, -3.82442508 ], [ -38.55566126, -3.82441013 ], [ -38.55798122, -3.8237022 ], [ -38.55878195, -3.82345582 ], [ -38.55891836, -3.82341385 ], [ -38.55889692, -3.82318596 ], [ -38.55882708, -3.82280004 ], [ -38.55830004, -3.82114197 ], [ -38.55818484, -3.82117797 ], [ -38.55750804, -3.82138398 ] ] ] ] } }
]
}
